Assignment
…
ZL_DF 

## # A tibble: 374,996 x 20
##    SHIFT_D    Terminal_ID EVENT_C EVENT_DT           
##    <date>     <chr>       <chr>   <dttm>             
##  1 2019-03-30 V2_0        EQOF    2019-03-30 14:13:26
##  2 2019-03-30 V2_0        EQOF    2019-03-30 14:46:08
##  3 2019-03-30 V2_0        EQOF    2019-03-30 16:41:04
##  4 2019-03-29 V2_0        EQMT    2019-03-30 01:42:21
##  5 2019-03-29 V2_0        EQOF    2019-03-30 02:13:12
##  6 2019-03-30 V2_0        EQOF    2019-03-30 20:01:38
##  7 2019-03-30 V2_0        EQOF    2019-03-30 20:24:56
##  8 2019-03-30 V2_0        EQOF    2019-03-30 20:40:49
##  9 2019-03-30 V2_0        EQMT    2019-03-30 20:44:44
## 10 2019-03-30 V2_0        EQMT    2019-03-30 20:47:02
## # ... with 374,986 more rows, and 16 more variables:
## #   EVENT_SHIFT_I <chr>, MOVE_OP_C <chr>, LENGTH_Q <chr>,
## #   CNTR_TYPE_C <chr>, CNTR_ST_C <chr>, DG_I <chr>,
## #   REEFER_I <chr>, UC_I <chr>, OVER_SIZE_I <chr>,
## #   EQUIPMENT_TYPE_C <chr>, Terminal <chr>,
## #   PM_DISTANCE_Q <dbl>, PM_TRAVEL_TIME_Q <dbl>,
## #   PM_WAIT_TIME_Q <dbl>, PM_UNPRODUCTIVE_TIME_Q <dbl>,
## #   PM_NON_WORK_TIME_Q <dbl>
…
